Project 4 DATA 607 (CODE USING MODEL NAIVE BAYES)
…
mydtm <- tidy(dtm2)
str(mydtm)

## Classes 'tbl_df', 'tbl' and 'data.frame':    1305 obs. of  3 variables:
##  $ term    : chr  "\"\"," "\"aabaabhaceadbdc\"," "\"abl" "\"absorb" ...
##  $ document: chr  "1" "1" "1" "1" ...
##  $ count   : num  99 1 2 2 1 1 2 2 1 1 ...

head(mydtm, 100)

## # A tibble: 100 x 3
##    term                   document count
##    <chr>                  <chr>    <dbl>
##  1 "\"\","                1           99
##  2 "\"aabaabhaceadbdc\"," 1            1
##  3 "\"abl"                1            2
##  4 "\"absorb"             1            2
##  5 "\"act"                1            1
##  6 "\"add"                1            1
##  7 "\"addressbr\","       1            2
##  8 "\"agre"               1            2
##  9 "\"aid"                1            1
## 10 "\"alreadi"            1            1
## # ... with 90 more rows

#slice sentiments of 1000 rows

mydtm_sentiments <- slice(mydtm , 1:100000) %>% inner_join(get_sentiments("bing"), by = c(term = "word"))
mydtm_sentiments

## # A tibble: 46 x 4
##    term    document count sentiment
##    <chr>   <chr>    <dbl> <chr>    
##  1 bad     1            3 negative 
##  2 betray  1            1 negative 
##  3 blow    1            2 negative 
##  4 bonus   1            4 positive 
##  5 boost   1            3 positive 
##  6 burn    1            1 negative 
##  7 corrupt 1            1 negative 
##  8 crime   1            3 negative 
##  9 debt    1            2 negative 
## 10 easier  1            2 positive 
## # ... with 36 more rows
…
mydtm3 <- tidy(dtm3)
str(mydtm3)

## Classes 'tbl_df', 'tbl' and 'data.frame':    826 obs. of  3 variables:
##  $ term    : chr  "\"\"," "\"abandon" "\"act" "\"ad" ...
##  $ document: chr  "1" "1" "1" "1" ...
##  $ count   : num  36 1 1 1 2 2 3 1 1 1 ...

head(mydtm3, 100)

## # A tibble: 100 x 3
##    term                         document count
##    <chr>                        <chr>    <dbl>
##  1 "\"\","                      1           36
##  2 "\"abandon"                  1            1
##  3 "\"act"                      1            1
##  4 "\"ad"                       1            1
##  5 "\"addressbr\","             1            2
##  6 "\"agenc"                    1            2
##  7 "\"aid"                      1            3
##  8 "\"alreadi"                  1            1
##  9 "\"americanexpressbr\","     1            1
## 10 "\"amknightmailexcitecom\"," 1            1
## # ... with 90 more rows

#slice sentiments of 1000 rows

mydtm_sentiments3 <- slice(mydtm3 , 1:100000) %>% inner_join(get_sentiments("bing"), by = c(term = "word"))
mydtm_sentiments3

## # A tibble: 28 x 4
##    term    document count sentiment
##    <chr>   <chr>    <dbl> <chr>    
##  1 boost   1            1 positive 
##  2 corrupt 1            1 negative 
##  3 enjoy   1            1 positive 
##  4 error   1            1 negative 
##  5 fail    1            1 negative 
##  6 fastest 1            1 positive 
##  7 fat     1            4 negative 
##  8 free    1            4 positive 
##  9 good    1            5 positive 
## 10 great   1            2 positive 
## # ... with 18 more rows
…
