DATA 607 - Project 4 - Document Classifier (Using SVM Model)
…
Now we use the corpus to construct a document term matrix and show wordcloud using Bing Lexicon

dtm <- DocumentTermMatrix(corpus)
dtm

## <<DocumentTermMatrix (documents: 5442, terms: 84242)>>
## Non-/sparse entries: 746748/457698216
## Sparsity           : 100%
## Maximal term length: 855
## Weighting          : term frequency (tf)

dtm_td <- tidy(dtm)
dtm_td

## # A tibble: 746,748 x 3
##    document     term               count
##    <chr>        <chr>              <dbl>
##  1 character(0) aafcf                  1
##  2 character(0) abandon                1
##  3 character(0) accept                 1
##  4 character(0) address                1
##  5 character(0) agre                   2
##  6 character(0) altern                 1
##  7 character(0) altra                  1
##  8 character(0) apolog                 1
##  9 character(0) aug                    8
## 10 character(0) authenticationwarn     1
## # ... with 746,738 more rows

#slice sentiments of 1000 rows
dtm_sentiments <- slice(dtm_td , 1:5000) %>% inner_join(get_sentiments("bing"), by = c(term = "word"))
dtm_sentiments

## # A tibble: 267 x 4
##    document     term   count sentiment
##    <chr>        <chr>  <dbl> <chr>    
##  1 character(0) betray     1 negative 
##  2 character(0) burn       1 negative 
##  3 character(0) easier     1 positive 
##  4 character(0) error      1 negative 
##  5 character(0) fail       1 negative 
##  6 character(0) fatal      1 negative 
##  7 character(0) flaw       1 negative 
##  8 character(0) free       3 positive 
##  9 character(0) good       1 positive 
## 10 character(0) honest     1 positive 
## # ... with 257 more rows
…
